{
    "package": {
        "name": "parse.yaml",
        "repo": "parse.yaml",
        "subject": "mkn",
        "desc": "I was pushed completely automatically",
        "website_url": "www.jfrog.com",
        "issue_tracker_url": "https://github.com/bintray/bintray-client-java/issues",
        "vcs_url": "https://github.com/bintray/bintray-client-java.git",
        "github_use_tag_release_notes": true,
        "github_release_notes_file": "RELEASE.txt",
        "licenses": ["BSD-3"],
        "labels": ["none"],
        "public_download_numbers": false,
        "public_stats": false
    },

    "version": {
        "name": "0.4",
        "desc": "This is a version",
        "released": "2015-01-04",
        "vcs_tag": "0.5",
        "gpgSign": false
    },
    "files":
    [
        {"includePattern": "/home/travis/build/mkn/parse.yaml/bin/lib/libparse.yaml.so", "uploadPattern": "nix/latest/libparse.yaml.so",
          "matrixParams": { "override": 1 } }
    ],
    "publish": true
}